Midterm: TidyText Project
…
Examples of Usage

Unnest Tokens

The definition of a token from Stanford, A token is an instance of a sequence of characters in some particular document that are grouped together as a useful semantic unit for processing.

We will be using Trumps remarks about leaving the Walter Reed Medical Center as the text for these functions.

unnest_tokens

Splits a column into tokens using the tokenizers package, splitting the table into one token per row. This function supports non-standard evaluation through the tidyeval framework. This function also has other sibling wrapper functions that works with other specific data formats such as regular expressions and tweets.

trumptibble %>% unnest_tokens(word, text)

# A tibble: 257 x 1
   word   
   <chr>  
 1 i      
 2 just   
 3 left   
 4 walter 
 5 reed   
 6 medical
 7 center 
 8 and    
 9 its   
10 really 
#  with 247 more rows
…
unnest_ngrams

Splits the text by amount of n.n-grams are used to predict the next item in a sequence. Special function that wraps the original unnest_tokens function as

unnest_tokens( token = ngrams )

3 words per line

trumptibble %>% unnest_ngrams(word, text, n = 3)

# A tibble: 255 x 1
   word                 
   <chr>                
 1 i just left          
 2 just left walter     
 3 left walter reed     
 4 walter reed medical  
 5 reed medical center  
 6 medical center and   
 7 center and its      
 8 and its really      
 9 its really something
10 really something very
#  with 245 more rows

5 words per line

trumptibble %>% unnest_ngrams(word, text, n = 5)

# A tibble: 253 x 1
   word                              
   <chr>                             
 1 i just left walter reed           
 2 just left walter reed medical     
 3 left walter reed medical center   
 4 walter reed medical center and    
 5 reed medical center and its      
 6 medical center and its really    
 7 center and its really something  
 8 and its really something very    
 9 its really something very special
10 really something very special the 
#  with 243 more rows

unnest_sentences

Special function that wraps the original unnest_tokens function as

unnest_tokens( token = sentences )

trumptibble %>% unnest_sentences(word, text)

# A tibble: 37 x 1
   word                                                                         
   <chr>                                                                        
 1 i just left walter reed medical center, and its really something very speci
 2 the doctors, the nurses, the first responders, and i learned so much about c
 3 one thing thats for certain, dont let it dominate you.                     
 4 dont be afraid of it.                                                       
 5 youre going to beat it.                                                     
 6 we have the best medical equipment.                                          
 7 we have the best medicines all developed recently, and youre going to beat 
 8 i went  i didnt feel so good.                                              
 9 and two days ago, i could have left two days ago.                            
10 two days ago, i felt great.                                                  
#  with 27 more rows
…
unnest_characters

Special function that wraps the original unnest_tokens function as

unnest_tokens( token = characters )

trumptibble %>% unnest_characters(word, text)

# A tibble: 1,023 x 1
   word 
   <chr>
 1 i    
 2 j    
 3 u    
 4 s    
 5 t    
 6 l    
 7 e    
 8 f    
 9 t    
10 w    
#  with 1,013 more rows
…
Stop words are words that are extremely common and dont add a lot of meaning to a document. There are three lexicons: AFINN, BING, and NRC. Some examples of stop words are: the, a, an, it, and also. The snowball and SMART sets are pulled from the tm package.

stop_words %>% count(lexicon, sort=TRUE)

# A tibble: 3 x 2
  lexicon      n
  <chr>    <int>
1 SMART      571
2 onix       404
3 snowball   174

stop_words

# A tibble: 1,149 x 2
   word        lexicon
   <chr>       <chr>  
 1 a           SMART  
 2 a's         SMART  
 3 able        SMART  
 4 about       SMART  
 5 above       SMART  
 6 according   SMART  
 7 accordingly SMART  
 8 across      SMART  
 9 actually    SMART  
10 after       SMART  
#  with 1,139 more rows
…
parts_of_speech

# A tibble: 208,259 x 2
   word    pos      
   <chr>   <chr>    
 1 3-d     Adjective
 2 3-d     Noun     
 3 4-f     Noun     
 4 4-h'er  Noun     
 5 4-h     Adjective
 6 a'      Adjective
 7 a-1     Noun     
 8 a-axis  Noun     
 9 a-bomb  Noun     
10 a-frame Noun     
#  with 208,249 more rows
…
English negators, modals, and adverbs, as a data frame. A few of these entries are two-word phrases instead of single words.

nma_words %>% count(modifier, sort=TRUE)

# A tibble: 3 x 2
  modifier     n
  <chr>    <int>
1 adverb      22
2 negator     15
3 modal        7

nma_words

# A tibble: 44 x 2
   word      modifier
   <chr>     <chr>   
 1 cannot    negator 
 2 could not negator 
 3 did not   negator 
 4 does not  negator 
 5 had no    negator 
 6 have no   negator 
 7 may not   negator 
 8 never     negator 
 9 no        negator 
10 not       negator 
#  with 34 more rows
…
